%YAML 1.1
%TAG !u! tag:unity3d.com,2011:
--- !u!1 &8560750389761976345
GameObject:
  m_ObjectHideFlags: 0
  m_CorrespondingSourceObject: {fileID: 0}
  m_PrefabInstance: {fileID: 0}
  m_PrefabAsset: {fileID: 0}
  serializedVersion: 6
  m_Component:
  - component: {fileID: 8560750389761976344}
  - component: {fileID: 8560750389761976420}
  - component: {fileID: 8560750389761976421}
  - component: {fileID: 8560750389761976422}
  - component: {fileID: 8560750389761976423}
  m_Layer: 0
  m_Name: Plane (1)
  m_TagString: Untagged
  m_Icon: {fileID: 0}
  m_NavMeshLayer: 0
  m_StaticEditorFlags: 0
  m_IsActive: 1
--- !u!4 &8560750389761976344
Transform:
  m_ObjectHideFlags: 0
  m_CorrespondingSourceObject: {fileID: 0}
  m_PrefabInstance: {fileID: 0}
  m_PrefabAsset: {fileID: 0}
  m_GameObject: {fileID: 8560750389761976345}
  m_LocalRotation: {x: -0, y: -0, z: -0, w: 1}
  m_LocalPosition: {x: 0, y: 0, z: -0.54}
  m_LocalScale: {x: 20, y: 1, z: 20}
  m_Children: []
  m_Father: {fileID: 0}
  m_RootOrder: 0
  m_LocalEulerAnglesHint: {x: 0, y: 0, z: 0}
--- !u!114 &8560750389761976420
MonoBehaviour:
  m_ObjectHideFlags: 0
  m_CorrespondingSourceObject: {fileID: 0}
  m_PrefabInstance: {fileID: 0}
  m_PrefabAsset: {fileID: 0}
  m_GameObject: {fileID: 8560750389761976345}
  m_Enabled: 1
  m_EditorHideFlags: 0
  m_Script: {fileID: 11500000, guid: 8233d90336aea43098adf6dbabd606a2, type: 3}
  m_Name: 
  m_EditorClassIdentifier: 
  m_MeshFormatVersion: 2
  m_Faces:
  - m_Indexes: 000000000100000002000000010000000300000002000000
    m_SmoothingGroup: 0
    m_Uv:
      m_UseWorldSpace: 0
      m_FlipU: 0
      m_FlipV: 0
      m_SwapUV: 0
      m_Fill: 1
      m_Scale: {x: 1, y: 1}
      m_Offset: {x: 0, y: 0}
      m_Rotation: 0
      m_Anchor: 9
    m_Material: {fileID: 2100000, guid: c22777d6e868e4f2fb421913386b154e, type: 2}
    m_SubmeshIndex: 0
    m_ManualUV: 0
    elementGroup: 0
    m_TextureGroup: -1
  - m_Indexes: 040000000500000006000000050000000700000006000000
    m_SmoothingGroup: 0
    m_Uv:
      m_UseWorldSpace: 0
      m_FlipU: 0
      m_FlipV: 0
      m_SwapUV: 0
      m_Fill: 1
      m_Scale: {x: 1, y: 1}
      m_Offset: {x: 0, y: 0}
      m_Rotation: 0
      m_Anchor: 9
    m_Material: {fileID: 2100000, guid: c22777d6e868e4f2fb421913386b154e, type: 2}
    m_SubmeshIndex: 0
    m_ManualUV: 0
    elementGroup: 0
    m_TextureGroup: -1
  - m_Indexes: 08000000090000000a000000090000000b0000000a000000
    m_SmoothingGroup: 0
    m_Uv:
      m_UseWorldSpace: 0
      m_FlipU: 0
      m_FlipV: 0
      m_SwapUV: 0
      m_Fill: 1
      m_Scale: {x: 1, y: 1}
      m_Offset: {x: 0, y: 0}
      m_Rotation: 0
      m_Anchor: 9
    m_Material: {fileID: 2100000, guid: c22777d6e868e4f2fb421913386b154e, type: 2}
    m_SubmeshIndex: 0
    m_ManualUV: 0
    elementGroup: 0
    m_TextureGroup: -1
  - m_Indexes: 0c0000000d0000000e0000000d0000000f0000000e000000
    m_SmoothingGroup: 0
    m_Uv:
      m_UseWorldSpace: 0
      m_FlipU: 0
      m_FlipV: 0
      m_SwapUV: 0
      m_Fill: 1
      m_Scale: {x: 1, y: 1}
      m_Offset: {x: 0, y: 0}
      m_Rotation: 0
      m_Anchor: 9
    m_Material: {fileID: 2100000, guid: c22777d6e868e4f2fb421913386b154e, type: 2}
    m_SubmeshIndex: 0
    m_ManualUV: 0
    elementGroup: 0
    m_TextureGroup: -1
  - m_Indexes: 100000001100000012000000110000001300000012000000
    m_SmoothingGroup: 0
    m_Uv:
      m_UseWorldSpace: 0
      m_FlipU: 0
      m_FlipV: 0
      m_SwapUV: 0
      m_Fill: 1
      m_Scale: {x: 1, y: 1}
      m_Offset: {x: 0, y: 0}
      m_Rotation: 0
      m_Anchor: 9
    m_Material: {fileID: 2100000, guid: c22777d6e868e4f2fb421913386b154e, type: 2}
    m_SubmeshIndex: 0
    m_ManualUV: 0
    elementGroup: 0
    m_TextureGroup: -1
  - m_Indexes: 140000001500000016000000150000001700000016000000
    m_SmoothingGroup: 0
    m_Uv:
      m_UseWorldSpace: 0
      m_FlipU: 0
      m_FlipV: 0
      m_SwapUV: 0
      m_Fill: 1
      m_Scale: {x: 1, y: 1}
      m_Offset: {x: 0, y: 0}
      m_Rotation: 0
      m_Anchor: 9
    m_Material: {fileID: 2100000, guid: c22777d6e868e4f2fb421913386b154e, type: 2}
    m_SubmeshIndex: 0
    m_ManualUV: 0
    elementGroup: 0
    m_TextureGroup: -1
  - m_Indexes: 18000000190000001a000000190000001b0000001a000000
    m_SmoothingGroup: 0
    m_Uv:
      m_UseWorldSpace: 0
      m_FlipU: 0
      m_FlipV: 0
      m_SwapUV: 0
      m_Fill: 1
      m_Scale: {x: 1, y: 1}
      m_Offset: {x: 0, y: 0}
      m_Rotation: 0
      m_Anchor: 9
    m_Material: {fileID: 2100000, guid: c22777d6e868e4f2fb421913386b154e, type: 2}
    m_SubmeshIndex: 0
    m_ManualUV: 0
    elementGroup: 0
    m_TextureGroup: -1
  - m_Indexes: 1c0000001d0000001e0000001d0000001f0000001e000000
    m_SmoothingGroup: 0
    m_Uv:
      m_UseWorldSpace: 0
      m_FlipU: 0
      m_FlipV: 0
      m_SwapUV: 0
      m_Fill: 1
      m_Scale: {x: 1, y: 1}
      m_Offset: {x: 0, y: 0}
      m_Rotation: 0
      m_Anchor: 9
    m_Material: {fileID: 2100000, guid: c22777d6e868e4f2fb421913386b154e, type: 2}
    m_SubmeshIndex: 0
    m_ManualUV: 0
    elementGroup: 0
    m_TextureGroup: -1
  - m_Indexes: 200000002100000022000000210000002300000022000000
    m_SmoothingGroup: 0
    m_Uv:
      m_UseWorldSpace: 0
      m_FlipU: 0
      m_FlipV: 0
      m_SwapUV: 0
      m_Fill: 1
      m_Scale: {x: 1, y: 1}
      m_Offset: {x: 0, y: 0}
      m_Rotation: 0
      m_Anchor: 9
    m_Material: {fileID: 2100000, guid: c22777d6e868e4f2fb421913386b154e, type: 2}
    m_SubmeshIndex: 0
    m_ManualUV: 0
    elementGroup: 0
    m_TextureGroup: -1
  - m_Indexes: 240000002500000026000000250000002700000026000000
    m_SmoothingGroup: 0
    m_Uv:
      m_UseWorldSpace: 0
      m_FlipU: 0
      m_FlipV: 0
      m_SwapUV: 0
      m_Fill: 1
      m_Scale: {x: 1, y: 1}
      m_Offset: {x: 0, y: 0}
      m_Rotation: 0
      m_Anchor: 9
    m_Material: {fileID: 2100000, guid: c22777d6e868e4f2fb421913386b154e, type: 2}
    m_SubmeshIndex: 0
    m_ManualUV: 0
    elementGroup: 0
    m_TextureGroup: -1
  - m_Indexes: 28000000290000002a000000290000002b0000002a000000
    m_SmoothingGroup: 0
    m_Uv:
      m_UseWorldSpace: 0
      m_FlipU: 0
      m_FlipV: 0
      m_SwapUV: 0
      m_Fill: 1
      m_Scale: {x: 1, y: 1}
      m_Offset: {x: 0, y: 0}
      m_Rotation: 0
      m_Anchor: 9
    m_Material: {fileID: 2100000, guid: c22777d6e868e4f2fb421913386b154e, type: 2}
    m_SubmeshIndex: 0
    m_ManualUV: 0
    elementGroup: 0
    m_TextureGroup: -1
  - m_Indexes: 2c0000002d0000002e0000002d0000002f0000002e000000
    m_SmoothingGroup: 0
    m_Uv:
      m_UseWorldSpace: 0
      m_FlipU: 0
      m_FlipV: 0
      m_SwapUV: 0
      m_Fill: 1
      m_Scale: {x: 1, y: 1}
      m_Offset: {x: 0, y: 0}
      m_Rotation: 0
      m_Anchor: 9
    m_Material: {fileID: 2100000, guid: c22777d6e868e4f2fb421913386b154e, type: 2}
    m_SubmeshIndex: 0
    m_ManualUV: 0
    elementGroup: 0
    m_TextureGroup: -1
  - m_Indexes: 300000003100000032000000310000003300000032000000
    m_SmoothingGroup: 0
    m_Uv:
      m_UseWorldSpace: 0
      m_FlipU: 0
      m_FlipV: 0
      m_SwapUV: 0
      m_Fill: 1
      m_Scale: {x: 1, y: 1}
      m_Offset: {x: 0, y: 0}
      m_Rotation: 0
      m_Anchor: 9
    m_Material: {fileID: 2100000, guid: c22777d6e868e4f2fb421913386b154e, type: 2}
    m_SubmeshIndex: 0
    m_ManualUV: 0
    elementGroup: 0
    m_TextureGroup: -1
  - m_Indexes: 340000003500000036000000350000003700000036000000
    m_SmoothingGroup: 0
    m_Uv:
      m_UseWorldSpace: 0
      m_FlipU: 0
      m_FlipV: 0
      m_SwapUV: 0
      m_Fill: 1
      m_Scale: {x: 1, y: 1}
      m_Offset: {x: 0, y: 0}
      m_Rotation: 0
      m_Anchor: 9
    m_Material: {fileID: 2100000, guid: c22777d6e868e4f2fb421913386b154e, type: 2}
    m_SubmeshIndex: 0
    m_ManualUV: 0
    elementGroup: 0
    m_TextureGroup: -1
  - m_Indexes: 38000000390000003a000000390000003b0000003a000000
    m_SmoothingGroup: 0
    m_Uv:
      m_UseWorldSpace: 0
      m_FlipU: 0
      m_FlipV: 0
      m_SwapUV: 0
      m_Fill: 1
      m_Scale: {x: 1, y: 1}
      m_Offset: {x: 0, y: 0}
      m_Rotation: 0
      m_Anchor: 9
    m_Material: {fileID: 2100000, guid: c22777d6e868e4f2fb421913386b154e, type: 2}
    m_SubmeshIndex: 0
    m_ManualUV: 0
    elementGroup: 0
    m_TextureGroup: -1
  - m_Indexes: 3c0000003d0000003e0000003d0000003f0000003e000000
    m_SmoothingGroup: 0
    m_Uv:
      m_UseWorldSpace: 0
      m_FlipU: 0
      m_FlipV: 0
      m_SwapUV: 0
      m_Fill: 1
      m_Scale: {x: 1, y: 1}
      m_Offset: {x: 0, y: 0}
      m_Rotation: 0
      m_Anchor: 9
    m_Material: {fileID: 2100000, guid: c22777d6e868e4f2fb421913386b154e, type: 2}
    m_SubmeshIndex: 0
    m_ManualUV: 0
    elementGroup: 0
    m_TextureGroup: -1
  - m_Indexes: 400000004100000042000000410000004300000042000000
    m_SmoothingGroup: 0
    m_Uv:
      m_UseWorldSpace: 0
      m_FlipU: 0
      m_FlipV: 0
      m_SwapUV: 0
      m_Fill: 1
      m_Scale: {x: 1, y: 1}
      m_Offset: {x: 0, y: 0}
      m_Rotation: 0
      m_Anchor: 9
    m_Material: {fileID: 2100000, guid: c22777d6e868e4f2fb421913386b154e, type: 2}
    m_SubmeshIndex: 0
    m_ManualUV: 0
    elementGroup: 0
    m_TextureGroup: -1
  - m_Indexes: 440000004500000046000000450000004700000046000000
    m_SmoothingGroup: 0
    m_Uv:
      m_UseWorldSpace: 0
      m_FlipU: 0
      m_FlipV: 0
      m_SwapUV: 0
      m_Fill: 1
      m_Scale: {x: 1, y: 1}
      m_Offset: {x: 0, y: 0}
      m_Rotation: 0
      m_Anchor: 9
    m_Material: {fileID: 2100000, guid: c22777d6e868e4f2fb421913386b154e, type: 2}
    m_SubmeshIndex: 0
    m_ManualUV: 0
    elementGroup: 0
    m_TextureGroup: -1
  - m_Indexes: 48000000490000004a000000490000004b0000004a000000
    m_SmoothingGroup: 0
    m_Uv:
      m_UseWorldSpace: 0
      m_FlipU: 0
      m_FlipV: 0
      m_SwapUV: 0
      m_Fill: 1
      m_Scale: {x: 1, y: 1}
      m_Offset: {x: 0, y: 0}
      m_Rotation: 0
      m_Anchor: 9
    m_Material: {fileID: 2100000, guid: c22777d6e868e4f2fb421913386b154e, type: 2}
    m_SubmeshIndex: 0
    m_ManualUV: 0
    elementGroup: 0
    m_TextureGroup: -1
  - m_Indexes: 4c0000004d0000004e0000004d0000004f0000004e000000
    m_SmoothingGroup: 0
    m_Uv:
      m_UseWorldSpace: 0
      m_FlipU: 0
      m_FlipV: 0
      m_SwapUV: 0
      m_Fill: 1
      m_Scale: {x: 1, y: 1}
      m_Offset: {x: 0, y: 0}
      m_Rotation: 0
      m_Anchor: 9
    m_Material: {fileID: 2100000, guid: c22777d6e868e4f2fb421913386b154e, type: 2}
    m_SubmeshIndex: 0
    m_ManualUV: 0
    elementGroup: 0
    m_TextureGroup: -1
  - m_Indexes: 500000005100000052000000510000005300000052000000
    m_SmoothingGroup: 0
    m_Uv:
      m_UseWorldSpace: 0
      m_FlipU: 0
      m_FlipV: 0
      m_SwapUV: 0
      m_Fill: 1
      m_Scale: {x: 1, y: 1}
      m_Offset: {x: 0, y: 0}
      m_Rotation: 0
      m_Anchor: 9
    m_Material: {fileID: 2100000, guid: c22777d6e868e4f2fb421913386b154e, type: 2}
    m_SubmeshIndex: 0
    m_ManualUV: 0
    elementGroup: 0
    m_TextureGroup: -1
  - m_Indexes: 540000005500000056000000550000005700000056000000
    m_SmoothingGroup: 0
    m_Uv:
      m_UseWorldSpace: 0
      m_FlipU: 0
      m_FlipV: 0
      m_SwapUV: 0
      m_Fill: 1
      m_Scale: {x: 1, y: 1}
      m_Offset: {x: 0, y: 0}
      m_Rotation: 0
      m_Anchor: 9
    m_Material: {fileID: 2100000, guid: c22777d6e868e4f2fb421913386b154e, type: 2}
    m_SubmeshIndex: 0
    m_ManualUV: 0
    elementGroup: 0
    m_TextureGroup: -1
  - m_Indexes: 58000000590000005a000000590000005b0000005a000000
    m_SmoothingGroup: 0
    m_Uv:
      m_UseWorldSpace: 0
      m_FlipU: 0
      m_FlipV: 0
      m_SwapUV: 0
      m_Fill: 1
      m_Scale: {x: 1, y: 1}
      m_Offset: {x: 0, y: 0}
      m_Rotation: 0
      m_Anchor: 9
    m_Material: {fileID: 2100000, guid: c22777d6e868e4f2fb421913386b154e, type: 2}
    m_SubmeshIndex: 0
    m_ManualUV: 0
    elementGroup: 0
    m_TextureGroup: -1
  - m_Indexes: 5c0000005d0000005e0000005d0000005f0000005e000000
    m_SmoothingGroup: 0
    m_Uv:
      m_UseWorldSpace: 0
      m_FlipU: 0
      m_FlipV: 0
      m_SwapUV: 0
      m_Fill: 1
      m_Scale: {x: 1, y: 1}
      m_Offset: {x: 0, y: 0}
      m_Rotation: 0
      m_Anchor: 9
    m_Material: {fileID: 2100000, guid: c22777d6e868e4f2fb421913386b154e, type: 2}
    m_SubmeshIndex: 0
    m_ManualUV: 0
    elementGroup: 0
    m_TextureGroup: -1
  - m_Indexes: 600000006100000062000000610000006300000062000000
    m_SmoothingGroup: 0
    m_Uv:
      m_UseWorldSpace: 0
      m_FlipU: 0
      m_FlipV: 0
      m_SwapUV: 0
      m_Fill: 1
      m_Scale: {x: 1, y: 1}
      m_Offset: {x: 0, y: 0}
      m_Rotation: 0
      m_Anchor: 9
    m_Material: {fileID: 2100000, guid: c22777d6e868e4f2fb421913386b154e, type: 2}
    m_SubmeshIndex: 0
    m_ManualUV: 0
    elementGroup: 0
    m_TextureGroup: -1
  - m_Indexes: 640000006500000066000000650000006700000066000000
    m_SmoothingGroup: 0
    m_Uv:
      m_UseWorldSpace: 0
      m_FlipU: 0
      m_FlipV: 0
      m_SwapUV: 0
      m_Fill: 1
      m_Scale: {x: 1, y: 1}
      m_Offset: {x: 0, y: 0}
      m_Rotation: 0
      m_Anchor: 9
    m_Material: {fileID: 2100000, guid: c22777d6e868e4f2fb421913386b154e, type: 2}
    m_SubmeshIndex: 0
    m_ManualUV: 0
    elementGroup: 0
    m_TextureGroup: -1
  - m_Indexes: 68000000690000006a000000690000006b0000006a000000
    m_SmoothingGroup: 0
    m_Uv:
      m_UseWorldSpace: 0
      m_FlipU: 0
      m_FlipV: 0
      m_SwapUV: 0
      m_Fill: 1
      m_Scale: {x: 1, y: 1}
      m_Offset: {x: 0, y: 0}
      m_Rotation: 0
      m_Anchor: 9
    m_Material: {fileID: 2100000, guid: c22777d6e868e4f2fb421913386b154e, type: 2}
    m_SubmeshIndex: 0
    m_ManualUV: 0
    elementGroup: 0
    m_TextureGroup: -1
  - m_Indexes: 6c0000006d0000006e0000006d0000006f0000006e000000
    m_SmoothingGroup: 0
    m_Uv:
      m_UseWorldSpace: 0
      m_FlipU: 0
      m_FlipV: 0
      m_SwapUV: 0
      m_Fill: 1
      m_Scale: {x: 1, y: 1}
      m_Offset: {x: 0, y: 0}
      m_Rotation: 0
      m_Anchor: 9
    m_Material: {fileID: 2100000, guid: c22777d6e868e4f2fb421913386b154e, type: 2}
    m_SubmeshIndex: 0
    m_ManualUV: 0
    elementGroup: 0
    m_TextureGroup: -1
  - m_Indexes: 700000007100000072000000710000007300000072000000
    m_SmoothingGroup: 0
    m_Uv:
      m_UseWorldSpace: 0
      m_FlipU: 0
      m_FlipV: 0
      m_SwapUV: 0
      m_Fill: 1
      m_Scale: {x: 1, y: 1}
      m_Offset: {x: 0, y: 0}
      m_Rotation: 0
      m_Anchor: 9
    m_Material: {fileID: 2100000, guid: c22777d6e868e4f2fb421913386b154e, type: 2}
    m_SubmeshIndex: 0
    m_ManualUV: 0
    elementGroup: 0
    m_TextureGroup: -1
  - m_Indexes: 740000007500000076000000750000007700000076000000
    m_SmoothingGroup: 0
    m_Uv:
      m_UseWorldSpace: 0
      m_FlipU: 0
      m_FlipV: 0
      m_SwapUV: 0
      m_Fill: 1
      m_Scale: {x: 1, y: 1}
      m_Offset: {x: 0, y: 0}
      m_Rotation: 0
      m_Anchor: 9
    m_Material: {fileID: 2100000, guid: c22777d6e868e4f2fb421913386b154e, type: 2}
    m_SubmeshIndex: 0
    m_ManualUV: 0
    elementGroup: 0
    m_TextureGroup: -1
  - m_Indexes: 78000000790000007a000000790000007b0000007a000000
    m_SmoothingGroup: 0
    m_Uv:
      m_UseWorldSpace: 0
      m_FlipU: 0
      m_FlipV: 0
      m_SwapUV: 0
      m_Fill: 1
      m_Scale: {x: 1, y: 1}
      m_Offset: {x: 0, y: 0}
      m_Rotation: 0
      m_Anchor: 9
    m_Material: {fileID: 2100000, guid: c22777d6e868e4f2fb421913386b154e, type: 2}
    m_SubmeshIndex: 0
    m_ManualUV: 0
    elementGroup: 0
    m_TextureGroup: -1
  - m_Indexes: 7c0000007d0000007e0000007d0000007f0000007e000000
    m_SmoothingGroup: 0
    m_Uv:
      m_UseWorldSpace: 0
      m_FlipU: 0
      m_FlipV: 0
      m_SwapUV: 0
      m_Fill: 1
      m_Scale: {x: 1, y: 1}
      m_Offset: {x: 0, y: 0}
      m_Rotation: 0
      m_Anchor: 9
    m_Material: {fileID: 2100000, guid: c22777d6e868e4f2fb421913386b154e, type: 2}
    m_SubmeshIndex: 0
    m_ManualUV: 0
    elementGroup: 0
    m_TextureGroup: -1
  - m_Indexes: 800000008100000082000000810000008300000082000000
    m_SmoothingGroup: 0
    m_Uv:
      m_UseWorldSpace: 0
      m_FlipU: 0
      m_FlipV: 0
      m_SwapUV: 0
      m_Fill: 1
      m_Scale: {x: 1, y: 1}
      m_Offset: {x: 0, y: 0}
      m_Rotation: 0
      m_Anchor: 9
    m_Material: {fileID: 2100000, guid: c22777d6e868e4f2fb421913386b154e, type: 2}
    m_SubmeshIndex: 0
    m_ManualUV: 0
    elementGroup: 0
    m_TextureGroup: -1
  - m_Indexes: 840000008500000086000000850000008700000086000000
    m_SmoothingGroup: 0
    m_Uv:
      m_UseWorldSpace: 0
      m_FlipU: 0
      m_FlipV: 0
      m_SwapUV: 0
      m_Fill: 1
      m_Scale: {x: 1, y: 1}
      m_Offset: {x: 0, y: 0}
      m_Rotation: 0
      m_Anchor: 9
    m_Material: {fileID: 2100000, guid: c22777d6e868e4f2fb421913386b154e, type: 2}
    m_SubmeshIndex: 0
    m_ManualUV: 0
    elementGroup: 0
    m_TextureGroup: -1
  - m_Indexes: 88000000890000008a000000890000008b0000008a000000
    m_SmoothingGroup: 0
    m_Uv:
      m_UseWorldSpace: 0
      m_FlipU: 0
      m_FlipV: 0
      m_SwapUV: 0
      m_Fill: 1
      m_Scale: {x: 1, y: 1}
      m_Offset: {x: 0, y: 0}
      m_Rotation: 0
      m_Anchor: 9
    m_Material: {fileID: 2100000, guid: c22777d6e868e4f2fb421913386b154e, type: 2}
    m_SubmeshIndex: 0
    m_ManualUV: 0
    elementGroup: 0
    m_TextureGroup: -1
  - m_Indexes: 8c0000008d0000008e0000008d0000008f0000008e000000
    m_SmoothingGroup: 0
    m_Uv:
      m_UseWorldSpace: 0
      m_FlipU: 0
      m_FlipV: 0
      m_SwapUV: 0
      m_Fill: 1
      m_Scale: {x: 1, y: 1}
      m_Offset: {x: 0, y: 0}
      m_Rotation: 0
      m_Anchor: 9
    m_Material: {fileID: 2100000, guid: c22777d6e868e4f2fb421913386b154e, type: 2}
    m_SubmeshIndex: 0
    m_ManualUV: 0
    elementGroup: 0
    m_TextureGroup: -1
  m_SharedVertices:
  - m_Vertices: 00000000
  - m_Vertices: 0100000004000000
  - m_Vertices: 0200000018000000
  - m_Vertices: 0300000006000000190000001c000000
  - m_Vertices: 0500000008000000
  - m_Vertices: 070000000a0000001d00000020000000
  - m_Vertices: 090000000c000000
  - m_Vertices: 0b0000000e0000002100000024000000
  - m_Vertices: 0d00000010000000
  - m_Vertices: 0f000000120000002500000028000000
  - m_Vertices: 1100000014000000
  - m_Vertices: 1300000016000000290000002c000000
  - m_Vertices: 15000000
  - m_Vertices: 170000002d000000
  - m_Vertices: 1a00000030000000
  - m_Vertices: 1b0000001e0000003100000034000000
  - m_Vertices: 1f000000220000003500000038000000
  - m_Vertices: 2300000026000000390000003c000000
  - m_Vertices: 270000002a0000003d00000040000000
  - m_Vertices: 2b0000002e0000004100000044000000
  - m_Vertices: 2f00000045000000
  - m_Vertices: 3200000048000000
  - m_Vertices: 3300000036000000490000004c000000
  - m_Vertices: 370000003a0000004d00000050000000
  - m_Vertices: 3b0000003e0000005100000054000000
  - m_Vertices: 3f000000420000005500000058000000
  - m_Vertices: 4300000046000000590000005c000000
  - m_Vertices: 470000005d000000
  - m_Vertices: 4a00000060000000
  - m_Vertices: 4b0000004e0000006100000064000000
  - m_Vertices: 4f000000520000006500000068000000
  - m_Vertices: 5300000056000000690000006c000000
  - m_Vertices: 570000005a0000006d00000070000000
  - m_Vertices: 5b0000005e0000007100000074000000
  - m_Vertices: 5f00000075000000
  - m_Vertices: 6200000078000000
  - m_Vertices: 6300000066000000790000007c000000
  - m_Vertices: 670000006a0000007d00000080000000
  - m_Vertices: 6b0000006e0000008100000084000000
  - m_Vertices: 6f000000720000008500000088000000
  - m_Vertices: 7300000076000000890000008c000000
  - m_Vertices: 770000008d000000
  - m_Vertices: 7a000000
  - m_Vertices: 7b0000007e000000
  - m_Vertices: 7f00000082000000
  - m_Vertices: 8300000086000000
  - m_Vertices: 870000008a000000
  - m_Vertices: 8b0000008e000000
  - m_Vertices: 8f000000
  m_SharedTextures: []
  m_Positions:
  - {x: 0, y: 0, z: 0}
  - {x: 0, y: 0, z: 0.8333334}
  - {x: 0.8333334, y: 0, z: 0}
  - {x: 0.8333334, y: 0, z: 0.8333334}
  - {x: 0, y: 0, z: 0.8333334}
  - {x: 0, y: 0, z: 1.6666667}
  - {x: 0.8333334, y: 0, z: 0.8333334}
  - {x: 0.8333334, y: 0, z: 1.6666667}
  - {x: 0, y: 0, z: 1.6666667}
  - {x: 0, y: 0, z: 2.5}
  - {x: 0.8333334, y: 0, z: 1.6666667}
  - {x: 0.8333334, y: 0, z: 2.5}
  - {x: 0, y: 0, z: 2.5}
  - {x: 0, y: 0, z: 3.3333333}
  - {x: 0.8333334, y: 0, z: 2.5}
  - {x: 0.8333334, y: 0, z: 3.3333333}
  - {x: 0, y: 0, z: 3.3333333}
  - {x: 0, y: 0, z: 4.1666665}
  - {x: 0.8333334, y: 0, z: 3.3333333}
  - {x: 0.8333334, y: 0, z: 4.1666665}
  - {x: 0, y: 0, z: 4.1666665}
  - {x: 0, y: 0, z: 5}
  - {x: 0.8333334, y: 0, z: 4.1666665}
  - {x: 0.8333334, y: 0, z: 5}
  - {x: 0.8333334, y: 0, z: 0}
  - {x: 0.8333334, y: 0, z: 0.8333334}
  - {x: 1.6666667, y: 0, z: 0}
  - {x: 1.6666667, y: 0, z: 0.8333334}
  - {x: 0.8333334, y: 0, z: 0.8333334}
  - {x: 0.8333334, y: 0, z: 1.6666667}
  - {x: 1.6666667, y: 0, z: 0.8333334}
  - {x: 1.6666667, y: 0, z: 1.6666667}
  - {x: 0.8333334, y: 0, z: 1.6666667}
  - {x: 0.8333334, y: 0, z: 2.5}
  - {x: 1.6666667, y: 0, z: 1.6666667}
  - {x: 1.6666667, y: 0, z: 2.5}
  - {x: 0.8333334, y: 0, z: 2.5}
  - {x: 0.8333334, y: 0, z: 3.3333333}
  - {x: 1.6666667, y: 0, z: 2.5}
  - {x: 1.6666667, y: 0, z: 3.3333333}
  - {x: 0.8333334, y: 0, z: 3.3333333}
  - {x: 0.8333334, y: 0, z: 4.1666665}
  - {x: 1.6666667, y: 0, z: 3.3333333}
  - {x: 1.6666667, y: 0, z: 4.1666665}
  - {x: 0.8333334, y: 0, z: 4.1666665}
  - {x: 0.8333334, y: 0, z: 5}
  - {x: 1.6666667, y: 0, z: 4.1666665}
  - {x: 1.6666667, y: 0, z: 5}
  - {x: 1.6666667, y: 0, z: 0}
  - {x: 1.6666667, y: 0, z: 0.8333334}
  - {x: 2.5, y: 0, z: 0}
  - {x: 2.5, y: 0, z: 0.8333334}
  - {x: 1.6666667, y: 0, z: 0.8333334}
  - {x: 1.6666667, y: 0, z: 1.6666667}
  - {x: 2.5, y: 0, z: 0.8333334}
  - {x: 2.5, y: 0, z: 1.6666667}
  - {x: 1.6666667, y: 0, z: 1.6666667}
  - {x: 1.6666667, y: 0, z: 2.5}
  - {x: 2.5, y: 0, z: 1.6666667}
  - {x: 2.5, y: 0, z: 2.5}
  - {x: 1.6666667, y: 0, z: 2.5}
  - {x: 1.6666667, y: 0, z: 3.3333333}
  - {x: 2.5, y: 0, z: 2.5}
  - {x: 2.5, y: 0, z: 3.3333333}
  - {x: 1.6666667, y: 0, z: 3.3333333}
  - {x: 1.6666667, y: 0, z: 4.1666665}
  - {x: 2.5, y: 0, z: 3.3333333}
  - {x: 2.5, y: 0, z: 4.1666665}
  - {x: 1.6666667, y: 0, z: 4.1666665}
  - {x: 1.6666667, y: 0, z: 5}
  - {x: 2.5, y: 0, z: 4.1666665}
  - {x: 2.5, y: 0, z: 5}
  - {x: 2.5, y: 0, z: 0}
  - {x: 2.5, y: 0, z: 0.8333334}
  - {x: 3.3333333, y: 0, z: 0}
  - {x: 3.3333333, y: 0, z: 0.8333334}
  - {x: 2.5, y: 0, z: 0.8333334}
  - {x: 2.5, y: 0, z: 1.6666667}
  - {x: 3.3333333, y: 0, z: 0.8333334}
  - {x: 3.3333333, y: 0, z: 1.6666667}
  - {x: 2.5, y: 0, z: 1.6666667}
  - {x: 2.5, y: 0, z: 2.5}
  - {x: 3.3333333, y: 0, z: 1.6666667}
  - {x: 3.3333333, y: 0, z: 2.5}
  - {x: 2.5, y: 0, z: 2.5}
  - {x: 2.5, y: 0, z: 3.3333333}
  - {x: 3.3333333, y: 0, z: 2.5}
  - {x: 3.3333333, y: 0, z: 3.3333333}
  - {x: 2.5, y: 0, z: 3.3333333}
  - {x: 2.5, y: 0, z: 4.1666665}
  - {x: 3.3333333, y: 0, z: 3.3333333}
  - {x: 3.3333333, y: 0, z: 4.1666665}
  - {x: 2.5, y: 0, z: 4.1666665}
  - {x: 2.5, y: 0, z: 5}
  - {x: 3.3333333, y: 0, z: 4.1666665}
  - {x: 3.3333333, y: 0, z: 5}
  - {x: 3.3333333, y: 0, z: 0}
  - {x: 3.3333333, y: 0, z: 0.8333334}
  - {x: 4.1666665, y: 0, z: 0}
  - {x: 4.1666665, y: 0, z: 0.8333334}
  - {x: 3.3333333, y: 0, z: 0.8333334}
  - {x: 3.3333333, y: 0, z: 1.6666667}
  - {x: 4.1666665, y: 0, z: 0.8333334}
  - {x: 4.1666665, y: 0, z: 1.6666667}
  - {x: 3.3333333, y: 0, z: 1.6666667}
  - {x: 3.3333333, y: 0, z: 2.5}
  - {x: 4.1666665, y: 0, z: 1.6666667}
  - {x: 4.1666665, y: 0, z: 2.5}
  - {x: 3.3333333, y: 0, z: 2.5}
  - {x: 3.3333333, y: 0, z: 3.3333333}
  - {x: 4.1666665, y: 0, z: 2.5}
  - {x: 4.1666665, y: 0, z: 3.3333333}
  - {x: 3.3333333, y: 0, z: 3.3333333}
  - {x: 3.3333333, y: 0, z: 4.1666665}
  - {x: 4.1666665, y: 0, z: 3.3333333}
  - {x: 4.1666665, y: 0, z: 4.1666665}
  - {x: 3.3333333, y: 0, z: 4.1666665}
  - {x: 3.3333333, y: 0, z: 5}
  - {x: 4.1666665, y: 0, z: 4.1666665}
  - {x: 4.1666665, y: 0, z: 5}
  - {x: 4.1666665, y: 0, z: 0}
  - {x: 4.1666665, y: 0, z: 0.8333334}
  - {x: 5, y: 0, z: 0}
  - {x: 5, y: 0, z: 0.8333334}
  - {x: 4.1666665, y: 0, z: 0.8333334}
  - {x: 4.1666665, y: 0, z: 1.6666667}
  - {x: 5, y: 0, z: 0.8333334}
  - {x: 5, y: 0, z: 1.6666667}
  - {x: 4.1666665, y: 0, z: 1.6666667}
  - {x: 4.1666665, y: 0, z: 2.5}
  - {x: 5, y: 0, z: 1.6666667}
  - {x: 5, y: 0, z: 2.5}
  - {x: 4.1666665, y: 0, z: 2.5}
  - {x: 4.1666665, y: 0, z: 3.3333333}
  - {x: 5, y: 0, z: 2.5}
  - {x: 5, y: 0, z: 3.3333333}
  - {x: 4.1666665, y: 0, z: 3.3333333}
  - {x: 4.1666665, y: 0, z: 4.1666665}
  - {x: 5, y: 0, z: 3.3333333}
  - {x: 5, y: 0, z: 4.1666665}
  - {x: 4.1666665, y: 0, z: 4.1666665}
  - {x: 4.1666665, y: 0, z: 5}
  - {x: 5, y: 0, z: 4.1666665}
  - {x: 5, y: 0, z: 5}
  m_Textures0:
  - {x: 0, y: 0}
  - {x: 0, y: 0.8333334}
  - {x: 0.8333334, y: 0}
  - {x: 0.8333334, y: 0.8333334}
  - {x: 0, y: 0.8333334}
  - {x: 0, y: 1.6666667}
  - {x: 0.8333334, y: 0.8333334}
  - {x: 0.8333334, y: 1.6666667}
  - {x: 0, y: 1.6666667}
  - {x: 0, y: 2.5}
  - {x: 0.8333334, y: 1.6666667}
  - {x: 0.8333334, y: 2.5}
  - {x: 0, y: 2.5}
  - {x: 0, y: 3.3333333}
  - {x: 0.8333334, y: 2.5}
  - {x: 0.8333334, y: 3.3333333}
  - {x: 0, y: 3.3333333}
  - {x: 0, y: 4.1666665}
  - {x: 0.8333334, y: 3.3333333}
  - {x: 0.8333334, y: 4.1666665}
  - {x: 0, y: 4.1666665}
  - {x: 0, y: 5}
  - {x: 0.8333334, y: 4.1666665}
  - {x: 0.8333334, y: 5}
  - {x: 0.8333334, y: 0}
  - {x: 0.8333334, y: 0.8333334}
  - {x: 1.6666667, y: 0}
  - {x: 1.6666667, y: 0.8333334}
  - {x: 0.8333334, y: 0.8333334}
  - {x: 0.8333334, y: 1.6666667}
  - {x: 1.6666667, y: 0.8333334}
  - {x: 1.6666667, y: 1.6666667}
  - {x: 0.8333334, y: 1.6666667}
  - {x: 0.8333334, y: 2.5}
  - {x: 1.6666667, y: 1.6666667}
  - {x: 1.6666667, y: 2.5}
  - {x: 0.8333334, y: 2.5}
  - {x: 0.8333334, y: 3.3333333}
  - {x: 1.6666667, y: 2.5}
  - {x: 1.6666667, y: 3.3333333}
  - {x: 0.8333334, y: 3.3333333}
  - {x: 0.8333334, y: 4.1666665}
  - {x: 1.6666667, y: 3.3333333}
  - {x: 1.6666667, y: 4.1666665}
  - {x: 0.8333334, y: 4.1666665}
  - {x: 0.8333334, y: 5}
  - {x: 1.6666667, y: 4.1666665}
  - {x: 1.6666667, y: 5}
  - {x: 1.6666667, y: 0}
  - {x: 1.6666667, y: 0.8333334}
  - {x: 2.5, y: 0}
  - {x: 2.5, y: 0.8333334}
  - {x: 1.6666667, y: 0.8333334}
  - {x: 1.6666667, y: 1.6666667}
  - {x: 2.5, y: 0.8333334}
  - {x: 2.5, y: 1.6666667}
  - {x: 1.6666667, y: 1.6666667}
  - {x: 1.6666667, y: 2.5}
  - {x: 2.5, y: 1.6666667}
  - {x: 2.5, y: 2.5}
  - {x: 1.6666667, y: 2.5}
  - {x: 1.6666667, y: 3.3333333}
  - {x: 2.5, y: 2.5}
  - {x: 2.5, y: 3.3333333}
  - {x: 1.6666667, y: 3.3333333}
  - {x: 1.6666667, y: 4.1666665}
  - {x: 2.5, y: 3.3333333}
  - {x: 2.5, y: 4.1666665}
  - {x: 1.6666667, y: 4.1666665}
  - {x: 1.6666667, y: 5}
  - {x: 2.5, y: 4.1666665}
  - {x: 2.5, y: 5}
  - {x: 2.5, y: 0}
  - {x: 2.5, y: 0.8333334}
  - {x: 3.3333333, y: 0}
  - {x: 3.3333333, y: 0.8333334}
  - {x: 2.5, y: 0.8333334}
  - {x: 2.5, y: 1.6666667}
  - {x: 3.3333333, y: 0.8333334}
  - {x: 3.3333333, y: 1.6666667}
  - {x: 2.5, y: 1.6666667}
  - {x: 2.5, y: 2.5}
  - {x: 3.3333333, y: 1.6666667}
  - {x: 3.3333333, y: 2.5}
  - {x: 2.5, y: 2.5}
  - {x: 2.5, y: 3.3333333}
  - {x: 3.3333333, y: 2.5}
  - {x: 3.3333333, y: 3.3333333}
  - {x: 2.5, y: 3.3333333}
  - {x: 2.5, y: 4.1666665}
  - {x: 3.3333333, y: 3.3333333}
  - {x: 3.3333333, y: 4.1666665}
  - {x: 2.5, y: 4.1666665}
  - {x: 2.5, y: 5}
  - {x: 3.3333333, y: 4.1666665}
  - {x: 3.3333333, y: 5}
  - {x: 3.3333333, y: 0}
  - {x: 3.3333333, y: 0.8333334}
  - {x: 4.1666665, y: 0}
  - {x: 4.1666665, y: 0.8333334}
  - {x: 3.3333333, y: 0.8333334}
  - {x: 3.3333333, y: 1.6666667}
  - {x: 4.1666665, y: 0.8333334}
  - {x: 4.1666665, y: 1.6666667}
  - {x: 3.3333333, y: 1.6666667}
  - {x: 3.3333333, y: 2.5}
  - {x: 4.1666665, y: 1.6666667}
  - {x: 4.1666665, y: 2.5}
  - {x: 3.3333333, y: 2.5}
  - {x: 3.3333333, y: 3.3333333}
  - {x: 4.1666665, y: 2.5}
  - {x: 4.1666665, y: 3.3333333}
  - {x: 3.3333333, y: 3.3333333}
  - {x: 3.3333333, y: 4.1666665}
  - {x: 4.1666665, y: 3.3333333}
  - {x: 4.1666665, y: 4.1666665}
  - {x: 3.3333333, y: 4.1666665}
  - {x: 3.3333333, y: 5}
  - {x: 4.1666665, y: 4.1666665}
  - {x: 4.1666665, y: 5}
  - {x: 4.1666665, y: 0}
  - {x: 4.1666665, y: 0.8333334}
  - {x: 5, y: 0}
  - {x: 5, y: 0.8333334}
  - {x: 4.1666665, y: 0.8333334}
  - {x: 4.1666665, y: 1.6666667}
  - {x: 5, y: 0.8333334}
  - {x: 5, y: 1.6666667}
  - {x: 4.1666665, y: 1.6666667}
  - {x: 4.1666665, y: 2.5}
  - {x: 5, y: 1.6666667}
  - {x: 5, y: 2.5}
  - {x: 4.1666665, y: 2.5}
  - {x: 4.1666665, y: 3.3333333}
  - {x: 5, y: 2.5}
  - {x: 5, y: 3.3333333}
  - {x: 4.1666665, y: 3.3333333}
  - {x: 4.1666665, y: 4.1666665}
  - {x: 5, y: 3.3333333}
  - {x: 5, y: 4.1666665}
  - {x: 4.1666665, y: 4.1666665}
  - {x: 4.1666665, y: 5}
  - {x: 5, y: 4.1666665}
  - {x: 5, y: 5}
  m_Textures2: []
  m_Textures3: []
  m_Tangents:
  - {x: 1, y: 0, z: 0, w: -1}
  - {x: 1, y: 0, z: 0, w: -1}
  - {x: 1, y: 0, z: 0, w: -1}
  - {x: 1, y: 0, z: 0, w: -1}
  - {x: 1, y: 0, z: 0, w: -1}
  - {x: 1, y: 0, z: 0, w: -1}
  - {x: 1, y: 0, z: 0, w: -1}
  - {x: 1, y: 0, z: 0, w: -1}
  - {x: 1, y: 0, z: 0, w: -1}
  - {x: 1, y: 0, z: 0, w: -1}
  - {x: 1, y: 0, z: 0, w: -1}
  - {x: 1, y: 0, z: 0, w: -1}
  - {x: 1, y: 0, z: 0, w: -1}
  - {x: 1, y: 0, z: 0, w: -1}
  - {x: 1, y: 0, z: 0, w: -1}
  - {x: 1, y: 0, z: 0, w: -1}
  - {x: 1, y: 0, z: 0, w: -1}
  - {x: 1, y: 0, z: 0, w: -1}
  - {x: 1, y: 0, z: 0, w: -1}
  - {x: 1, y: 0, z: 0, w: -1}
  - {x: 1, y: 0, z: 0, w: -1}
  - {x: 1, y: 0, z: 0, w: -1}
  - {x: 1, y: 0, z: 0, w: -1}
  - {x: 1, y: 0, z: 0, w: -1}
  - {x: 1, y: 0, z: 0, w: -1}
  - {x: 1, y: 0, z: 0, w: -1}
  - {x: 1, y: 0, z: 0, w: -1}
  - {x: 1, y: 0, z: 0, w: -1}
  - {x: 1, y: 0, z: 0, w: -1}
  - {x: 1, y: 0, z: 0, w: -1}
  - {x: 1, y: 0, z: 0, w: -1}
  - {x: 1, y: 0, z: 0, w: -1}
  - {x: 1, y: 0, z: 0, w: -1}
  - {x: 1, y: 0, z: 0, w: -1}
  - {x: 1, y: 0, z: 0, w: -1}
  - {x: 1, y: 0, z: 0, w: -1}
  - {x: 1, y: 0, z: 0, w: -1}
  - {x: 1, y: 0, z: 0, w: -1}
  - {x: 1, y: 0, z: 0, w: -1}
  - {x: 1, y: 0, z: 0, w: -1}
  - {x: 1, y: 0, z: 0, w: -1}
  - {x: 1, y: 0, z: 0, w: -1}
  - {x: 1, y: 0, z: 0, w: -1}
  - {x: 1, y: 0, z: 0, w: -1}
  - {x: 1, y: 0, z: 0, w: -1}
  - {x: 1, y: 0, z: 0, w: -1}
  - {x: 1, y: 0, z: 0, w: -1}
  - {x: 1, y: 0, z: 0, w: -1}
  - {x: 1, y: 0, z: 0, w: -1}
  - {x: 1, y: 0, z: 0, w: -1}
  - {x: 1, y: 0, z: 0, w: -1}
  - {x: 1, y: 0, z: 0, w: -1}
  - {x: 1, y: 0, z: 0, w: -1}
  - {x: 1, y: 0, z: 0, w: -1}
  - {x: 1, y: 0, z: 0, w: -1}
  - {x: 1, y: 0, z: 0, w: -1}
  - {x: 1, y: 0, z: 0, w: -1}
  - {x: 1, y: 0, z: 0, w: -1}
  - {x: 1, y: 0, z: 0, w: -1}
  - {x: 1, y: 0, z: 0, w: -1}
  - {x: 1, y: 0, z: 0, w: -1}
  - {x: 1, y: 0, z: 0, w: -1}
  - {x: 1, y: 0, z: 0, w: -1}
  - {x: 1, y: 0, z: 0, w: -1}
  - {x: 1, y: 0, z: 0, w: -1}
  - {x: 1, y: 0, z: 0, w: -1}
  - {x: 1, y: 0, z: 0, w: -1}
  - {x: 1, y: 0, z: 0, w: -1}
  - {x: 1, y: 0, z: 0, w: -1}
  - {x: 1, y: 0, z: 0, w: -1}
  - {x: 1, y: 0, z: 0, w: -1}
  - {x: 1, y: 0, z: 0, w: -1}
  - {x: 1, y: 0, z: 0, w: -1}
  - {x: 1, y: 0, z: 0, w: -1}
  - {x: 1, y: 0, z: 0, w: -1}
  - {x: 1, y: 0, z: 0, w: -1}
  - {x: 1, y: 0, z: 0, w: -1}
  - {x: 1, y: 0, z: 0, w: -1}
  - {x: 1, y: 0, z: 0, w: -1}
  - {x: 1, y: 0, z: 0, w: -1}
  - {x: 1, y: 0, z: 0, w: -1}
  - {x: 1, y: 0, z: 0, w: -1}
  - {x: 1, y: 0, z: 0, w: -1}
  - {x: 1, y: 0, z: 0, w: -1}
  - {x: 1, y: 0, z: 0, w: -1}
  - {x: 1, y: 0, z: 0, w: -1}
  - {x: 1, y: 0, z: 0, w: -1}
  - {x: 1, y: 0, z: 0, w: -1}
  - {x: 1, y: 0, z: 0, w: -1}
  - {x: 1, y: 0, z: 0, w: -1}
  - {x: 1, y: 0, z: 0, w: -1}
  - {x: 1, y: 0, z: 0, w: -1}
  - {x: 1, y: 0, z: 0, w: -1}
  - {x: 1, y: 0, z: 0, w: -1}
  - {x: 1, y: 0, z: 0, w: -1}
  - {x: 1, y: 0, z: 0, w: -1}
  - {x: 1, y: 0, z: 0, w: -1}
  - {x: 1, y: 0, z: 0, w: -1}
  - {x: 1, y: 0, z: 0, w: -1}
  - {x: 1, y: 0, z: 0, w: -1}
  - {x: 1, y: 0, z: 0, w: -1}
  - {x: 1, y: 0, z: 0, w: -1}
  - {x: 1, y: 0, z: 0, w: -1}
  - {x: 1, y: 0, z: 0, w: -1}
  - {x: 1, y: 0, z: 0, w: -1}
  - {x: 1, y: 0, z: 0, w: -1}
  - {x: 1, y: 0, z: 0, w: -1}
  - {x: 1, y: 0, z: 0, w: -1}
  - {x: 1, y: 0, z: 0, w: -1}
  - {x: 1, y: 0, z: 0, w: -1}
  - {x: 1, y: 0, z: 0, w: -1}
  - {x: 1, y: 0, z: 0, w: -1}
  - {x: 1, y: 0, z: 0, w: -1}
  - {x: 1, y: 0, z: 0, w: -1}
  - {x: 1, y: 0, z: 0, w: -1}
  - {x: 1, y: 0, z: 0, w: -1}
  - {x: 1, y: 0, z: 0, w: -1}
  - {x: 1, y: 0, z: 0, w: -1}
  - {x: 1, y: 0, z: 0, w: -1}
  - {x: 1, y: 0, z: 0, w: -1}
  - {x: 1, y: 0, z: 0, w: -1}
  - {x: 1, y: 0, z: 0, w: -1}
  - {x: 1, y: 0, z: 0, w: -1}
  - {x: 1, y: 0, z: 0, w: -1}
  - {x: 1, y: 0, z: 0, w: -1}
  - {x: 1, y: 0, z: 0, w: -1}
  - {x: 1, y: 0, z: 0, w: -1}
  - {x: 1, y: 0, z: 0, w: -1}
  - {x: 1, y: 0, z: 0, w: -1}
  - {x: 1, y: 0, z: 0, w: -1}
  - {x: 1, y: 0, z: 0, w: -1}
  - {x: 1, y: 0, z: 0, w: -1}
  - {x: 1, y: 0, z: 0, w: -1}
  - {x: 1, y: 0, z: 0, w: -1}
  - {x: 1, y: 0, z: 0, w: -1}
  - {x: 1, y: 0, z: 0, w: -1}
  - {x: 1, y: 0, z: 0, w: -1}
  - {x: 1, y: 0, z: 0, w: -1}
  - {x: 1, y: 0, z: 0, w: -1}
  - {x: 1, y: 0, z: 0, w: -1}
  - {x: 1, y: 0, z: 0, w: -1}
  - {x: 1, y: 0, z: 0, w: -1}
  - {x: 1, y: 0, z: 0, w: -1}
  - {x: 1, y: 0, z: 0, w: -1}
  m_Colors: []
  m_UnwrapParameters:
    m_HardAngle: 88
    m_PackMargin: 20
    m_AngleError: 8
    m_AreaError: 15
  m_PreserveMeshAssetOnDestroy: 0
  assetGuid: 
  m_Mesh: {fileID: 0}
  m_VersionIndex: 11
  m_IsSelectable: 1
  m_SelectedFaces: 
  m_SelectedEdges: []
  m_SelectedVertices: 
--- !u!23 &8560750389761976421
MeshRenderer:
  m_ObjectHideFlags: 0
  m_CorrespondingSourceObject: {fileID: 0}
  m_PrefabInstance: {fileID: 0}
  m_PrefabAsset: {fileID: 0}
  m_GameObject: {fileID: 8560750389761976345}
  m_Enabled: 1
  m_CastShadows: 1
  m_ReceiveShadows: 1
  m_DynamicOccludee: 1
  m_StaticShadowCaster: 0
  m_MotionVectors: 1
  m_LightProbeUsage: 1
  m_ReflectionProbeUsage: 1
  m_RayTracingMode: 2
  m_RayTraceProcedural: 0
  m_RenderingLayerMask: 1
  m_RendererPriority: 0
  m_Materials:
  - {fileID: 2100000, guid: 1bef106380647445dbc90adf893d1fa7, type: 2}
  m_StaticBatchInfo:
    firstSubMesh: 0
    subMeshCount: 0
  m_StaticBatchRoot: {fileID: 0}
  m_ProbeAnchor: {fileID: 0}
  m_LightProbeVolumeOverride: {fileID: 0}
  m_ScaleInLightmap: 1
  m_ReceiveGI: 1
  m_PreserveUVs: 0
  m_IgnoreNormalsForChartDetection: 0
  m_ImportantGI: 0
  m_StitchLightmapSeams: 1
  m_SelectedEditorRenderState: 2
  m_MinimumChartSize: 4
  m_AutoUVMaxDistance: 0.5
  m_AutoUVMaxAngle: 89
  m_LightmapParameters: {fileID: 0}
  m_SortingLayerID: 0
  m_SortingLayer: 0
  m_SortingOrder: 0
  m_AdditionalVertexStreams: {fileID: 0}
--- !u!33 &8560750389761976422
MeshFilter:
  m_ObjectHideFlags: 0
  m_CorrespondingSourceObject: {fileID: 0}
  m_PrefabInstance: {fileID: 0}
  m_PrefabAsset: {fileID: 0}
  m_GameObject: {fileID: 8560750389761976345}
  m_Mesh: {fileID: 0}
--- !u!64 &8560750389761976423
MeshCollider:
  m_ObjectHideFlags: 0
  m_CorrespondingSourceObject: {fileID: 0}
  m_PrefabInstance: {fileID: 0}
  m_PrefabAsset: {fileID: 0}
  m_GameObject: {fileID: 8560750389761976345}
  m_Material: {fileID: 0}
  m_IsTrigger: 0
  m_Enabled: 1
  serializedVersion: 4
  m_Convex: 0
  m_CookingOptions: 30
  m_Mesh: {fileID: 0}
